0 0.937652 0.402665 0.124696 0.296302
0 0.570666 0.520705 0.703615 0.894991
1 0.137370 0.732682 0.178082 0.111082
9 0.386380 0.403124 0.049028 0.060761
9 0.010970 0.431633 0.021940 0.073921
8 0.228803 0.603244 0.119182 0.387888
