11 0.501056 0.460178 0.997888 0.920356
4 0.255502 0.584304 0.156671 0.305516
1 0.648785 0.537469 0.169000 0.054742
8 0.521768 0.332069 0.174973 0.226262
0 0.342824 0.663667 0.521708 0.570356
2 0.6076271186440678 0.352 0.2627118644067797 0.44622222222222224
