0 0.507651 0.537167 0.706307 0.925667
0 0.225727 0.509873 0.030031 0.038760
8 0.702244 0.753603 0.392071 0.492793
3 0.092318 0.601180 0.048662 0.163360
0 0.045000 0.569133 0.090000 0.288267
0 0.18666666666666668 0.5393333333333333 0.059555555555555556 0.17333333333333334
