1 0.6577287066246057 0.3125 0.28391167192429023 0.18632075471698112
8 0.5796529968454258 0.20754716981132076 0.16561514195583596 0.32547169811320753
0 0.416403785488959 0.6839622641509434 0.444794952681388 0.4669811320754717
