0 0.401470 0.597177 0.521260 0.771411
8 0.915535 0.181044 0.100330 0.115450
8 0.087585 0.607372 0.023970 0.101742
8 0.078135 0.162658 0.043330 0.099670
1 0.040335 0.230833 0.080670 0.049144
8 0.606135 0.451817 0.151350 0.183393
2 0.709465 0.608063 0.341170 0.167447
2 0.042255 0.617703 0.084510 0.088709
0 0.133275 0.521141 0.084910 0.290270
0 0.138030 0.219790 0.072940 0.267718
0 0.856050 0.270953 0.221660 0.363829
2 0.917780 0.233619 0.164440 0.075796
