0 0.264467 0.534354 0.166267 0.348292
4 0.703775 0.553033 0.251217 0.371933
4 0.408883 0.547142 0.205100 0.306883
4 0.251421 0.497312 0.106492 0.183592
4 0.083038 0.495354 0.093858 0.155425
1 0.217400 0.904050 0.354050 0.105200
1 0.075396 0.833717 0.150792 0.058000
0 0.706779 0.627671 0.550925 0.645425
0 0.379192 0.598304 0.396017 0.522192
0 0.077758 0.587462 0.155517 0.417008
8 0.380904 0.810825 0.103608 0.180767
8 0.146900 0.765533 0.066950 0.136067
