1 0.126729 0.729590 0.253457 0.065664
8 0.212646 0.570163 0.087559 0.398320
0 0.540767 0.507637 0.559795 0.746185
10 0.670454 0.311152 0.126553 0.134987
0 0.116450 0.386445 0.232900 0.496849
0 0.943457 0.314551 0.113086 0.150143
0 0.134619 0.276120 0.175781 0.184792
