4 0.35657894736842105 0.39621152328334647 0.1931578947368421 0.3835832675611681
3 0.6965789473684211 0.5572217837411207 0.1394736842105263 0.5430149960536701
0 0.32842105263157895 0.5082872928176796 0.4663157894736842 0.8271507498026835
