1 0.072063 0.531838 0.099521 0.043090
0 0.547878 0.488146 0.837474 0.894965
8 0.037643 0.486277 0.075286 0.064164
8 0.143445 0.468268 0.075297 0.185840
0 0.034177 0.409439 0.068354 0.225520
1 0.123260 0.584770 0.032781 0.028273
