0 0.5265384615384615 0.4907692307692308 0.6438461538461538 0.8692307692307693
1 0.10076923076923076 0.8430769230769231 0.2 0.0876923076923077
8 0.20653846153846153 0.6792307692307692 0.07923076923076923 0.42
