7 0.759750 0.079872 0.384625 0.159744
7 0.362050 0.085718 0.342325 0.171437
0 0.29548816568047337 0.4942337547127966 0.4264792899408284 0.7990685296074518
1 0.5077662721893491 0.802727877578177 0.09068047337278107 0.10534486582390774
4 0.28513313609467456 0.4579729430028831 0.18801775147928995 0.4537591483699268
8 0.4889792899408284 0.6349523175870482 0.10103550295857988 0.49855843867819916
2 0.6319526627218935 0.6481481481481481 0.2254437869822485 0.5422488356620093
