0 0.260446 0.458636 0.413427 0.807655
8 0.745217 0.586158 0.231452 0.253201
1 0.785917 0.694270 0.309669 0.110870
1 0.780478 0.330900 0.325108 0.169823
1 0.460070 0.875354 0.383350 0.104808
8 0.354764 0.684447 0.215236 0.298392
