9 0.833428 0.569854 0.172441 0.184499
8 0.263440 0.640065 0.047681 0.307904
1 0.154729 0.765485 0.214399 0.090645
9 0.493081 0.518841 0.107480 0.071263
9 0.493022 0.487298 0.059580 0.033490
9 0.520769 0.491387 0.077104 0.045560
11 0.736062 0.466523 0.045269 0.063932
9 0.773909 0.469928 0.037241 0.035703
10 0.901931 0.441090 0.020649 0.021595
9 0.932991 0.442962 0.011167 0.012227
9 0.995486 0.435661 0.009028 0.018249
9 0.980066 0.440348 0.028071 0.022689
9 0.975354 0.462767 0.046343 0.048451
9 0.908777 0.523021 0.089575 0.108385
11 0.532925 0.460983 0.054258 0.039010
9 0.638987 0.431885 0.027886 0.014837
0 0.563313 0.577604 0.609927 0.658984
9 0.165771484375 0.5305989583333334 0.26220703125 0.14583333333333334
