0 0.460834 0.446571 0.537169 0.678642
8 0.208813 0.500250 0.104000 0.465167
1 0.110584 0.697542 0.221169 0.087583
0 0.036234 0.380871 0.072469 0.345542
0 0.144450 0.389642 0.188087 0.419000
1 0.103387 0.647246 0.206775 0.116808
8 0.127597 0.539850 0.154069 0.107200
