8 0.461542 0.109851 0.127000 0.179057
9 0.726633 0.721594 0.203933 0.296390
9 0.907954 0.755862 0.184092 0.297829
9 0.564879 0.697177 0.130125 0.228697
2 0.643054 0.384299 0.683642 0.537829
0 0.270546 0.652649 0.518558 0.672543
1 0.535158 0.199373 0.119133 0.056886
4 0.314192 0.569187 0.194217 0.391576
9 0.6329166666666667 0.3939205955334988 0.6508333333333334 0.5
