0 0.619618 0.352216 0.250412 0.195373
8 0.730610 0.408529 0.024662 0.080275
1 0.740154 0.443137 0.014544 0.013098
2 0.792162 0.401765 0.100676 0.109804
1 0.347809 0.781118 0.433294 0.247843
8 0.466971 0.726863 0.267088 0.404784
