1 0.762861 0.835371 0.378652 0.077227
11 0.928342 0.415813 0.143316 0.065258
11 0.797996 0.420271 0.047469 0.059465
7 0.525316 0.632324 0.698898 0.686523
8 0.531150 0.658307 0.092309 0.495441
12 0.147143 0.564955 0.294285 0.238496
