3 0.1766347687400319 0.6674641148325359 0.2767145135566188 0.6555023923444976
4 0.46570972886762363 0.694377990430622 0.33014354066985646 0.5944976076555024
0 0.3843700159489633 0.5783492822966507 0.7575757575757576 0.8385167464114832
1 0.9453748006379585 0.5334928229665071 0.1076555023923445 0.15550239234449761
8 0.8736044657097288 0.29545454545454547 0.1682615629984051 0.5909090909090909
