10 0.204583 0.399944 0.180536 0.178644
9 0.811518 0.442394 0.092381 0.093743
1 0.259447 0.764501 0.374747 0.211898
8 0.396632 0.598535 0.221319 0.216607
9 0.962093 0.458548 0.075813 0.086329
0 0.578795 0.490807 0.453819 0.575529
9 0.378306 0.433624 0.104459 0.108254
