0 0.917083 0.381445 0.165833 0.258422
0 0.425250 0.455922 0.593844 0.581633
8 0.635701 0.578096 0.317453 0.353926
1 0.749169 0.842115 0.501661 0.315770
1 0.842081 0.516678 0.266786 0.061895
8 0.902133 0.456172 0.195734 0.105273
