0 0.506693 0.485767 0.588633 0.485107
8 0.741950 0.415757 0.058651 0.045283
0 0.535138 0.328623 0.107009 0.096934
0 0.861151 0.399216 0.277697 0.213579
0 0.181142 0.391946 0.133624 0.111812
0 0.023500 0.395652 0.047000 0.121382
1 0.447555 0.844714 0.356321 0.213491
8 0.491505 0.596589 0.597431 0.298657
