0 0.1484375 0.6111111111111112 0.296875 0.7027777777777777
1 0.360546875 0.4111111111111111 0.15859375 0.05
4 0.083203125 0.4791666666666667 0.16328125 0.275
8 0.287890625 0.25625 0.06171875 0.30972222222222223
9 0.385546875 0.6756944444444445 0.17578125 0.20694444444444443
11 0.61171875 0.4166666666666667 0.53125 0.825
