3 0.48828125 0.2805989583333333 0.1640625 0.26953125
3 0.3642578125 0.3138020833333333 0.154296875 0.18489583333333334
2 0.474609375 0.4427083333333333 0.625 0.390625
8 0.7529296875 0.451171875 0.322265625 0.2747395833333333
0 0.7802734375 0.7057291666666666 0.435546875 0.4401041666666667
