0 0.394182 0.409427 0.327813 0.211800
0 0.125640 0.393480 0.251280 0.196573
8 0.500578 0.657780 0.208622 0.162440
1 0.724360 0.819660 0.524933 0.209307
13 0.674978 0.439863 0.065653 0.063980
3 0.663827 0.413357 0.036578 0.050807
