9 0.149642 0.560986 0.073716 0.023262
0 0.4861111111111111 0.4486607142857143 0.5833333333333334 0.8973214285714286
0 0.10515873015873016 0.30084325396825395 0.21031746031746032 0.33482142857142855
0 0.8568121693121693 0.31547619047619047 0.27976190476190477 0.3898809523809524
