0 0.4829644097222222 0.5070891203703703 0.4463975694444444 0.9204282407407407
1 0.3430989583333333 0.8861400462962963 0.2625868055555556 0.19241898148148148
8 0.4512803819444444 0.7113715277777778 0.14952256944444445 0.26186342592592593
