0 0.654625 0.535667 0.550250 0.676222
8 0.374950 0.568567 0.052233 0.346022
1 0.247192 0.700600 0.246050 0.095333
9 0.903733 0.429967 0.152333 0.121400
3 0.703708 0.329433 0.015183 0.055267
11 0.666067 0.404711 0.667867 0.368533
