0 0.572643 0.553200 0.405286 0.599600
8 0.460171 0.626280 0.242057 0.397360
11 0.263871 0.330560 0.284600 0.113280
8 0.059407 0.595600 0.110614 0.131600
0 0.054521 0.451840 0.109043 0.213640
1 0.310000 0.878400 0.396000 0.243200
2 0.10571428571428572 0.611 0.19714285714285715 0.154
