0 0.068414 0.607357 0.082538 0.122698
8 0.735192 0.689388 0.061536 0.105786
0 0.450200 0.534006 0.625810 0.632128
4 0.429825 0.430535 0.254541 0.262796
1 0.815309 0.739437 0.116694 0.029777
4 0.062429 0.583686 0.040217 0.049346
