8 0.265465 0.121563 0.076486 0.177571
2 0.141579 0.137915 0.224493 0.160435
4 0.547905 0.745297 0.155980 0.195356
5 0.602753 0.783588 0.777128 0.364486
9 0.715650 0.642013 0.087889 0.040657
1 0.164865 0.200210 0.224493 0.045150
