0 0.469182 0.682067 0.468254 0.551716
4 0.448971 0.093051 0.009449 0.018652
1 0.796468 0.829685 0.195496 0.068636
8 0.706440 0.699816 0.043125 0.274142
4 0.417525 0.127120 0.009449 0.019289
1 0.403539 0.141270 0.006599 0.003979
1 0.454403 0.139069 0.005509 0.004608
0 0.443159 0.130576 0.017923 0.027459
0 0.418778 0.130596 0.020153 0.032108
1 0.434828 0.106577 0.005662 0.005033
0 0.449519 0.095462 0.020925 0.031446
1 0.423585 0.101540 0.005502 0.004191
0 0.412108 0.093260 0.018395 0.027042
