0 0.301172 0.572723 0.294219 0.557768
2 0.666451 0.782929 0.551547 0.418357
8 0.485638 0.636063 0.084453 0.188036
4 0.328065 0.499027 0.130328 0.310643
4 0.831846 0.464049 0.020734 0.037473
0 0.845951 0.456616 0.077807 0.059286
10 0.791667 0.489152 0.076563 0.086161
