2 0.687305 0.498260 0.515864 0.143973
0 0.348345 0.594111 0.651746 0.481309
1 0.881591 0.551635 0.077733 0.013520
8 0.600934 0.440387 0.116409 0.065102
3 0.4279437609841828 0.464453125 0.08845928529584066 0.08046875
4 0.1127709431751611 0.5623046875 0.13884007029876977 0.379296875
