7 0.6647222222222222 0.9259036144578313 0.165 0.14819277108433734
7 0.5088888888888888 0.9012048192771084 0.11888888888888889 0.1927710843373494
7 0.38472222222222224 0.8759036144578313 0.105 0.24819277108433735
7 0.315 0.858433734939759 0.10555555555555556 0.25180722891566265
7 0.26166666666666666 0.8337349397590361 0.06888888888888889 0.25301204819277107
7 0.21694444444444444 0.8012048192771084 0.0661111111111111 0.2289156626506024
7 0.1802777777777778 0.7969879518072289 0.09833333333333333 0.2036144578313253
7 0.15166666666666667 0.7795180722891566 0.07111111111111111 0.19518072289156627
7 0.09972222222222223 0.7777108433734939 0.11722222222222223 0.21084337349397592
7 0.085 0.713855421686747 0.10444444444444445 0.13855421686746988
7 0.05277777777777778 0.6710843373493975 0.06111111111111111 0.06746987951807229
