0 0.473119 0.646818 0.339488 0.450421
4 0.431004 0.624617 0.255031 0.262227
0 0.769430 0.642869 0.247984 0.134058
1 0.219322 0.941132 0.219324 0.075127
2 0.292664 0.822500 0.366531 0.186264
8 0.352459 0.703420 0.165777 0.086561
2 0.841830 0.753702 0.283020 0.214529
1 0.783160 0.725435 0.028602 0.055573
8 0.773436 0.676894 0.091527 0.051038
3 0.75078125 0.5740396530359355 0.146875 0.1294919454770756
