1 0.143454 0.146569 0.088288 0.057604
8 0.123356 0.135127 0.052398 0.062178
0 0.053985 0.409839 0.059171 0.085432
11 0.094992 0.407538 0.042859 0.022711
8 0.255086 0.589888 0.246773 0.246774
0 0.513039 0.606703 0.709109 0.660061
0 0.106164 0.126595 0.080033 0.143741
