2 0.676983 0.609072 0.479144 0.586886
8 0.550806 0.492892 0.229056 0.551779
0 0.392978 0.500000 0.507667 1.000000
4 0.348311 0.310716 0.193511 0.487892
3 0.196839 0.554603 0.162367 0.857756
1 0.809722 0.811605 0.204556 0.112573
