9 0.063501 0.575985 0.127001 0.154668
3 0.329845 0.560726 0.521241 0.878548
9 0.050558 0.415804 0.071603 0.062853
9 0.004546 0.421043 0.009092 0.054056
1 0.832954 0.676738 0.229394 0.124077
4 0.728704 0.209917 0.079151 0.135207
8 0.769453 0.410747 0.313826 0.420249
0 0.764867 0.389507 0.368789 0.636898
9 0.136536 0.398511 0.089188 0.090529
