1 0.740278 0.391700 0.454156 0.134683
9 0.776300 0.658250 0.054156 0.014350
9 0.616611 0.677917 0.571556 0.212167
9 0.829956 0.662492 0.056044 0.029100
9 0.791011 0.665325 0.057933 0.021817
0 0.321894 0.687908 0.603389 0.345133
9 0.892461 0.667950 0.072211 0.038400
8 0.567094 0.243596 0.195744 0.386642
4 0.285267 0.586017 0.085733 0.057967
