0 0.850350 0.494092 0.299300 0.988183
4 0.942215 0.428072 0.115570 0.467282
8 0.679225 0.479697 0.051250 0.499099
0 0.329385 0.475702 0.535750 0.951403
1 0.675010 0.729985 0.059020 0.054357
8 0.554360 0.405185 0.075220 0.061566
