0 0.550381 0.550814 0.298012 0.337836
1 0.655044 0.328310 0.290838 0.099052
8 0.541175 0.269889 0.114675 0.096967
0 0.339456 0.525387 0.533413 0.411406
1 0.752650 0.379976 0.250950 0.084724
1 0.869844 0.416761 0.225588 0.056809
8 0.791662 0.378547 0.081175 0.064866
0 0.700769 0.557449 0.273638 0.285008
8 0.683669 0.346445 0.114012 0.102812
1 0.791287 0.393878 0.219500 0.073096
