7 0.917867 0.654771 0.164267 0.494181
7 0.164042 0.572993 0.328083 0.364292
0 0.503250 0.464931 0.337000 0.719306
3 0.691471 0.534035 0.100892 0.536097
8 0.383146 0.605653 0.156742 0.396167
1 0.288637 0.826951 0.268358 0.105569
4 0.078667 0.426396 0.157333 0.484986
