8 0.906589 0.207270 0.014312 0.045877
0 0.932534 0.190564 0.043945 0.065382
8 0.959780 0.194748 0.013789 0.040868
0 0.981484 0.181528 0.036104 0.061059
0 0.867732 0.172895 0.036997 0.054523
8 0.889910 0.177222 0.011382 0.035851
0 0.721038 0.174171 0.026772 0.056970
0 0.758284 0.192166 0.045757 0.067214
8 0.780046 0.194839 0.014468 0.041589
8 0.791184 0.169722 0.010894 0.032726
0 0.776924 0.167244 0.030693 0.054089
8 0.419548 0.195543 0.017983 0.043030
8 0.431775 0.177248 0.015737 0.038368
8 0.366294 0.170894 0.014199 0.034253
0 0.354229 0.167105 0.020059 0.052682
0 0.264968 0.172895 0.025015 0.055043
8 0.127339 0.177786 0.018125 0.036563
0 0.035315 0.160790 0.021313 0.047413
0 0.690164 0.160608 0.027261 0.049497
0 0.632690 0.167240 0.027100 0.051927
0 0.614666 0.155469 0.026450 0.045000
0 0.951436 0.160017 0.031934 0.046389
0 0.912092 0.166667 0.034888 0.051927
8 0.239482 0.196615 0.020166 0.044878
1 0.590400 0.831319 0.123369 0.099201
8 0.550886 0.708598 0.081157 0.241901
0 0.444531 0.663954 0.150000 0.376415
0 0.178430 0.480781 0.127671 0.246615
0 0.034185 0.384987 0.068369 0.185929
1 0.053931 0.459896 0.057637 0.029080
8 0.039526 0.400712 0.063789 0.114236
8 0.212983 0.503138 0.073350 0.150095
1 0.233789 0.583902 0.079912 0.049436
0 0.770425 0.480482 0.137822 0.247214
0 0.940161 0.381493 0.115869 0.190938
8 0.856145 0.505356 0.046958 0.157865
1 0.886721 0.584753 0.089741 0.047856
1 0.734138 0.383798 0.051763 0.019905
8 0.717256 0.336888 0.030820 0.091450
0 0.673486 0.325295 0.094443 0.145295
1 0.545930 0.458537 0.062798 0.024523
8 0.526292 0.400464 0.042056 0.115269
0 0.483196 0.384965 0.109351 0.184236
1 0.339419 0.383815 0.048271 0.022352
8 0.325283 0.336888 0.040889 0.092891
0 0.289119 0.326562 0.065610 0.147552
0 0.172239 0.285881 0.067759 0.121849
8 0.190444 0.294188 0.037969 0.076849
1 0.101816 0.297617 0.033057 0.012856
8 0.093145 0.262691 0.035049 0.063628
0 0.080449 0.256632 0.056855 0.105573
8 0.019287 0.240625 0.034727 0.057691
0 0.018281 0.234514 0.036562 0.092431
0 0.051333 0.190985 0.035859 0.067214
8 0.060105 0.195043 0.022261 0.040608
0 0.105435 0.202222 0.041514 0.073559
8 0.114712 0.208116 0.025420 0.046441
0 0.166121 0.215543 0.037319 0.077891
8 0.182048 0.218798 0.023892 0.044453
0 0.250581 0.234297 0.053135 0.090955
8 0.266787 0.239531 0.026934 0.055677
1 0.273547 0.269414 0.031665 0.011016
1 0.120364 0.231476 0.024888 0.006181
0 0.224834 0.191285 0.031211 0.065868
0 0.294924 0.203186 0.034888 0.075000
8 0.312480 0.207283 0.021318 0.045694
0 0.329526 0.181189 0.028506 0.059497
8 0.343503 0.185586 0.018032 0.037561
0 0.353296 0.255686 0.061963 0.106163
8 0.374468 0.262899 0.028125 0.065868
1 0.384546 0.297509 0.034912 0.013316
1 0.409302 0.247865 0.029971 0.008490
8 0.401992 0.221293 0.022988 0.050087
0 0.388064 0.217118 0.043325 0.082500
0 0.969226 0.234310 0.059712 0.092891
0 0.895454 0.254983 0.066592 0.108264
8 0.937700 0.263355 0.020146 0.065391
0 0.803159 0.285464 0.079834 0.121988
8 0.845273 0.293963 0.024014 0.075582
1 0.860190 0.333481 0.044980 0.016615
0 0.730549 0.233924 0.059780 0.092083
8 0.759988 0.239562 0.019312 0.056536
0 0.683318 0.202235 0.042349 0.071832
8 0.708145 0.209010 0.017363 0.049045
0 0.626704 0.256046 0.068252 0.104280
8 0.655588 0.264340 0.023853 0.067795
0 0.595046 0.214401 0.044009 0.077882
8 0.622275 0.220764 0.018145 0.049097
0 0.653208 0.182656 0.035049 0.063003
0 0.480229 0.285812 0.059346 0.122127
8 0.517744 0.293529 0.029209 0.076502
0 0.577896 0.190117 0.036182 0.063759
0 0.565662 0.173572 0.029224 0.055530
0 0.810251 0.216402 0.050239 0.083082
0 0.877400 0.202205 0.046733 0.071545
1 0.913293 0.230812 0.018931 0.007214
1 0.024692 0.269891 0.026064 0.012578
1 0.200176 0.333016 0.040244 0.015703
1 0.664807 0.296723 0.037974 0.012161
1 0.763105 0.268043 0.017686 0.009227
8 0.279192 0.177422 0.017124 0.036059
0 0.075732 0.165799 0.030176 0.053472
1 0.782236 0.216354 0.013076 0.007847
1 0.849531 0.247396 0.036436 0.012049
1 0.948186 0.295621 0.045679 0.010599
1 0.198682 0.247040 0.007559 0.005451
1 0.133794 0.195352 0.013535 0.005234
1 0.541006 0.333168 0.022598 0.013056
1 0.438140 0.195221 0.018369 0.006432
1 0.426858 0.216710 0.022358 0.008160
