8 0.798661 0.077904 0.033010 0.111675
8 0.569039 0.440171 0.032839 0.047708
1 0.568083 0.464700 0.012677 0.008533
5 0.877667 0.429800 0.157750 0.217333
5 0.934044 0.449179 0.131911 0.322792
5 0.052169 0.467967 0.104339 0.331600
5 0.373469 0.422658 0.161969 0.136483
1 0.875021 0.877212 0.249958 0.133725
8 0.736286 0.760183 0.094271 0.402350
0 0.364164 0.517792 0.637609 0.964417
1 0.747068 0.467229 0.015177 0.008992
8 0.751938 0.442488 0.037021 0.048292
0 0.568651 0.420133 0.034948 0.090683
0 0.746505 0.420992 0.053719 0.094300
