1 0.565220 0.621430 0.171660 0.046203
0 0.639565 0.710352 0.219470 0.425234
1 0.096325 0.924789 0.013590 0.007547
0 0.105110 0.931953 0.022340 0.040562
1 0.097060 0.712953 0.013060 0.010656
0 0.103805 0.751687 0.024790 0.040062
1 0.096250 0.551562 0.012640 0.005000
0 0.105580 0.559688 0.021900 0.039781
8 0.628045 0.549984 0.118010 0.111313
