1 0.506891 0.440648 0.318218 0.186289
3 0.251027 0.728273 0.093345 0.279082
3 0.616841 0.684575 0.075064 0.255816
3 0.536877 0.650655 0.083555 0.224818
8 0.327759 0.215985 0.091136 0.414723
0 0.761295 0.779892 0.367500 0.440216
0 0.244532 0.871188 0.352391 0.257625
4 0.228427 0.919771 0.099636 0.160459
3 0.810664 0.572220 0.048564 0.066275
3 0.721759 0.581559 0.069700 0.145304
