2 0.714100 0.670680 0.269300 0.362560
8 0.584415 0.641980 0.139970 0.340947
4 0.374900 0.473133 0.202200 0.271920
11 0.826165 0.462613 0.157710 0.362933
1 0.644195 0.818493 0.027710 0.026507
11 0.947840 0.443927 0.104320 0.509347
0 0.396870 0.591733 0.472500 0.669867
