4 0.924815 0.448500 0.111369 0.232567
11 0.500449 0.221942 0.999101 0.443883
3 0.570364 0.315250 0.105549 0.335733
3 0.647539 0.360317 0.122753 0.209833
0 0.759693 0.370983 0.119729 0.222133
4 0.773531 0.325142 0.069544 0.098317
3 0.911448 0.310367 0.147347 0.308900
2 0.544408 0.677400 0.155863 0.250200
0 0.907218 0.453692 0.185563 0.311283
8 0.485207 0.698808 0.058288 0.140383
0 0.316912 0.606533 0.306976 0.485233
4 0.322810 0.592150 0.171384 0.372367
