9 0.082821 0.618301 0.042952 0.127276
3 0.531248 0.618101 0.038032 0.099588
3 0.488229 0.641702 0.043020 0.100232
11 0.198551 0.589787 0.073827 0.121163
3 0.218840 0.584133 0.025763 0.147744
3 0.561488 0.700872 0.038657 0.231505
3 0.148722 0.671008 0.040845 0.211388
