11 0.911133 0.422265 0.177733 0.139425
0 0.550117 0.463938 0.499072 0.651792
11 0.562334 0.386296 0.013715 0.020794
9 0.026205 0.481151 0.052411 0.084511
3 0.032798 0.462943 0.065595 0.233955
11 0.962237 0.404597 0.075526 0.164656
8 0.704819 0.484921 0.085303 0.175794
9 0.098291 0.448717 0.112158 0.109352
10 0.313338 0.409521 0.080437 0.176647
11 0.787721 0.392758 0.096682 0.122288
11 0.895593 0.386882 0.207822 0.154848
