1 0.918357 0.891979 0.163286 0.108449
1 0.419225 0.808701 0.126664 0.031070
8 0.342789 0.719594 0.026207 0.219080
0 0.287543 0.613652 0.100457 0.451241
1 0.118393 0.940374 0.236786 0.040963
1 0.328032 0.862439 0.171979 0.043594
0 0.111604 0.628695 0.223207 0.539529
0 0.498404 0.591075 0.078364 0.337273
0 0.732250 0.588316 0.511643 0.612032
8 0.862150 0.709957 0.275700 0.258631
1 0.471196 0.769107 0.024264 0.022706
0 0.391196 0.599374 0.103879 0.384888
