0 0.506900 0.455787 0.102333 0.315869
0 0.421354 0.432643 0.193475 0.425736
3 0.289442 0.595762 0.354967 0.808476
0 0.611900 0.441125 0.100950 0.241268
8 0.969417 0.757382 0.061167 0.485235
0 0.685642 0.444356 0.058817 0.193885
0 0.712413 0.442638 0.054425 0.179877
0 0.732867 0.440910 0.037750 0.168037
0 0.420250 0.500000 0.840500 1.000000
