1 0.068047 0.586932 0.136093 0.034058
10 0.966494 0.372403 0.067012 0.028204
0 0.137678 0.404767 0.057814 0.113689
8 0.156494 0.452141 0.044761 0.055757
0 0.423047 0.423762 0.324955 0.257505
0 0.609573 0.524083 0.780854 0.711835
8 0.196365 0.654718 0.185614 0.392388
1 0.121753 0.827631 0.243506 0.174854
9 0.576772 0.384854 0.069301 0.026466
9 0.809987 0.376553 0.046210 0.028291
