9 0.362835 0.260513 0.018730 0.024040
9 0.186100 0.255247 0.028700 0.024813
11 0.235970 0.249153 0.080820 0.057960
0 0.546895 0.530433 0.499370 0.744867
8 0.498205 0.624720 0.174050 0.170533
1 0.646655 0.840087 0.390070 0.281293
9 0.459420 0.261760 0.021100 0.013093
9 0.308470 0.263633 0.033960 0.024387
