7 0.102103 0.410588 0.134233 0.217525
0 0.585936 0.497817 0.599491 0.968552
8 0.286558 0.453790 0.030139 0.055208
7 0.218161 0.428862 0.121601 0.204747
8 0.150155 0.443023 0.024147 0.046186
8 0.181653 0.611959 0.227354 0.216339
1 0.075804 0.709162 0.151607 0.064603
