0 0.363210 0.479766 0.326992 0.525664
8 0.157142 0.561318 0.072435 0.318652
1 0.088542 0.729805 0.177083 0.108672
8 0.649876 0.592012 0.138268 0.336289
1 0.564674 0.759590 0.221380 0.114766
9 0.557721 0.455342 0.118542 0.140723
9 0.953971 0.461025 0.059349 0.060059
0 0.783958 0.505957 0.350729 0.547461
