10 0.381978 0.377956 0.033623 0.036649
0 0.689282 0.401390 0.022803 0.035988
7 0.666733 0.409316 0.017432 0.028039
8 0.796614 0.520639 0.004087 0.007859
7 0.218352 0.457949 0.026938 0.050684
7 0.215698 0.508302 0.034619 0.064087
7 0.664067 0.392667 0.016504 0.033869
7 0.640410 0.390128 0.012764 0.020661
7 0.626919 0.398993 0.013691 0.022044
7 0.590779 0.412464 0.009126 0.011104
7 0.613176 0.413441 0.020591 0.024823
7 0.624404 0.420402 0.016191 0.018850
7 0.333127 0.399816 0.011919 0.026574
7 0.311729 0.406518 0.015586 0.027280
7 0.302102 0.407104 0.015894 0.040684
7 0.398567 0.438734 0.037505 0.060143
7 0.365105 0.431544 0.026147 0.062577
0 0.481133 0.640000 0.037832 0.125830
0 0.487886 0.529399 0.030371 0.094275
0 0.468215 0.468659 0.032788 0.081270
8 0.485085 0.464831 0.007466 0.020451
0 0.383801 0.501912 0.041187 0.089234
8 0.405183 0.502656 0.005063 0.036236
1 0.410552 0.515541 0.015283 0.010346
3 0.275129 0.464147 0.019858 0.047032
7 0.289539 0.456228 0.016040 0.061968
0 0.264712 0.562915 0.062432 0.116063
8 0.293867 0.569256 0.014258 0.048760
1 0.307644 0.580965 0.022798 0.023388
1 0.230520 0.528989 0.007397 0.013005
7 0.308921 0.468509 0.026621 0.064365
6 0.308413 0.443396 0.023770 0.038603
7 0.337705 0.479328 0.039834 0.064005
7 0.223042 0.443159 0.015850 0.044365
7 0.260649 0.409530 0.019258 0.039512
7 0.120151 0.567675 0.073418 0.060143
7 0.125312 0.522919 0.057773 0.057543
7 0.137900 0.492258 0.036709 0.032509
7 0.146746 0.473565 0.045425 0.042261
7 0.161670 0.459339 0.043047 0.039820
7 0.178115 0.446923 0.033467 0.033937
1 0.640762 0.616476 0.021787 0.026071
8 0.656101 0.601645 0.024429 0.054861
0 0.683237 0.618264 0.073398 0.135177
1 0.730188 0.582945 0.025728 0.022539
8 0.743530 0.573779 0.012158 0.043877
0 0.778821 0.572352 0.070249 0.114185
0 0.827466 0.530233 0.057363 0.088866
6 0.760625 0.499752 0.023496 0.014681
6 0.760911 0.481416 0.026226 0.013546
6 0.749631 0.453757 0.027144 0.029346
6 0.730583 0.436439 0.025327 0.027648
6 0.799829 0.455338 0.022559 0.027656
8 0.677683 0.499087 0.008979 0.037243
0 0.704529 0.497010 0.056255 0.080872
1 0.665706 0.511435 0.017690 0.010563
1 0.606079 0.525147 0.016875 0.036769
0 0.626714 0.524478 0.054473 0.100751
1 0.596567 0.536307 0.010713 0.011007
6 0.654810 0.473400 0.026045 0.014673
6 0.659131 0.444887 0.025879 0.029369
6 0.662053 0.464369 0.025493 0.015800
6 0.701577 0.456044 0.022012 0.031322
6 0.619414 0.451108 0.010635 0.030481
6 0.612278 0.437224 0.011919 0.027370
6 0.645483 0.444782 0.018994 0.013832
9 0.360518 0.416172 0.033242 0.021360
1 0.783418 0.546566 0.027363 0.013629
1 0.554949 0.476503 0.006265 0.005447
8 0.562852 0.463129 0.010762 0.039196
0 0.590132 0.461551 0.060273 0.090932
10 0.445803 0.364241 0.018940 0.032494
10 0.457043 0.381225 0.030249 0.031240
10 0.426592 0.389403 0.033379 0.040879
10 0.419114 0.370887 0.030112 0.034170
10 0.458337 0.397904 0.035786 0.040571
10 0.416724 0.411409 0.036172 0.042727
3 0.683806 0.447265 0.007339 0.036123
3 0.676746 0.450090 0.006782 0.040075
3 0.661614 0.444869 0.008071 0.040917
3 0.655010 0.445150 0.008437 0.039226
3 0.409680 0.421461 0.006753 0.030962
3 0.536487 0.420165 0.007544 0.027288
3 0.612607 0.408212 0.008535 0.028024
1 0.421860 0.458689 0.006133 0.006289
1 0.311218 0.460353 0.019868 0.006461
1 0.315664 0.474895 0.007568 0.007716
1 0.317439 0.492288 0.005903 0.009955
1 0.348062 0.500361 0.019072 0.014500
1 0.238181 0.460646 0.023149 0.010263
1 0.235337 0.474080 0.024131 0.012983
1 0.224741 0.491285 0.017461 0.009962
1 0.228960 0.509098 0.010986 0.009361
0 0.204634 0.499737 0.028252 0.043772
3 0.600061 0.407923 0.010952 0.026649
3 0.591616 0.407449 0.005859 0.020774
