0 0.530693 0.416875 0.182281 0.271172
8 0.840604 0.724715 0.318792 0.536883
0 0.496276 0.578469 0.862865 0.843062
0 0.027214 0.402754 0.054427 0.158711
0 0.067401 0.396988 0.057490 0.143039
1 0.863518 0.948262 0.270359 0.103477
