1 0.197653 0.917582 0.304250 0.163767
0 0.604301 0.514459 0.519039 0.971081
0 0.990452 0.504198 0.019096 0.241154
0 0.966338 0.382260 0.067324 0.419635
0 0.939058 0.373402 0.062416 0.369210
0 0.913880 0.372041 0.060285 0.336525
0 0.857144 0.348202 0.039007 0.256136
0 0.882321 0.359781 0.065250 0.298372
8 0.329254 0.699496 0.089311 0.475492
4 0.622517 0.387995 0.211638 0.532637
