0 0.149192 0.369594 0.151617 0.111438
0 0.061183 0.376300 0.122367 0.111837
1 0.224642 0.423716 0.092800 0.018656
9 0.343537 0.370834 0.103975 0.039244
0 0.558167 0.511347 0.657000 0.648819
8 0.876371 0.537959 0.094108 0.208394
8 0.195713 0.386503 0.074075 0.063731
