6 0.841570 0.541103 0.173160 0.289212
6 0.676702 0.515578 0.160335 0.230345
0 0.271210 0.477044 0.312080 0.506527
0 0.608257 0.433548 0.080165 0.213533
8 0.671408 0.467693 0.071845 0.111200
0 0.689183 0.438192 0.107395 0.247367
8 0.598428 0.460323 0.054455 0.100990
0 0.546658 0.433380 0.061785 0.182588
8 0.542858 0.456129 0.054215 0.091703
8 0.479840 0.469737 0.054200 0.105911
0 0.464980 0.432236 0.081300 0.180990
1 0.474885 0.731789 0.234580 0.131695
8 0.385375 0.566759 0.123050 0.312093
