1 0.744632 0.708992 0.038016 0.034983
0 0.068561 0.587858 0.137122 0.368783
0 0.865992 0.565275 0.184652 0.219217
8 0.710361 0.737242 0.074205 0.323517
0 0.352142 0.626933 0.670486 0.664133
8 0.916984 0.627100 0.133127 0.145700
1 0.942457 0.709775 0.083863 0.041450
1 0.822431 0.868658 0.244231 0.068683
0 0.726965 0.577533 0.095558 0.238300
