9 0.274443 0.045871 0.046783 0.050933
3 0.207046 0.045474 0.019074 0.061151
2 0.572184 0.484922 0.762916 0.676812
9 0.105025 0.111555 0.205469 0.115303
9 0.240501 0.040552 0.033342 0.045614
1 0.961408 0.496835 0.077184 0.197216
9 0.364906 0.030972 0.022378 0.031991
9 0.391414 0.040785 0.042904 0.056532
9 0.412666 0.048313 0.048761 0.055163
9 0.461126 0.069059 0.089912 0.092115
9 0.765582 0.058095 0.240551 0.114914
9 0.813567 0.106672 0.136971 0.159813
