8 0.832757 0.614546 0.119250 0.263500
11 0.908556 0.425745 0.182889 0.195713
0 0.223066 0.427616 0.434188 0.493250
1 0.907142 0.741935 0.150799 0.041796
10 0.786410 0.444306 0.144792 0.096759
0 0.446837 0.546060 0.795465 0.757120
