3 0.613232 0.693372 0.099121 0.307396
1 0.247959 0.226458 0.083457 0.043906
2 0.241440 0.199290 0.097158 0.120846
9 0.350664 0.667513 0.040273 0.017318
9 0.391704 0.651113 0.021025 0.012643
10 0.354370 0.659232 0.048291 0.026120
5 0.674844 0.645573 0.389531 0.309896
8 0.285776 0.183418 0.041729 0.119544
4 0.683999 0.575885 0.057529 0.086380
9 0.432319 0.661243 0.019131 0.018034
