8 0.581820 0.770607 0.083160 0.355637
4 0.346815 0.555660 0.143170 0.290930
3 0.422920 0.596394 0.070960 0.245862
3 0.054870 0.668853 0.084460 0.386972
3 0.106950 0.684588 0.085700 0.330975
3 0.601805 0.652946 0.056610 0.420045
1 0.700575 0.925495 0.295690 0.129070
3 0.762505 0.557069 0.025670 0.122054
0 0.370520 0.641507 0.480160 0.695817
3 0.807980 0.525045 0.036300 0.076147
3 0.920985 0.550052 0.019250 0.031889
