3 0.940970 0.462006 0.068244 0.376115
8 0.666518 0.546011 0.156764 0.600971
11 0.742011 0.276576 0.324858 0.553153
12 0.982395 0.482683 0.035209 0.124761
3 0.732617 0.402373 0.072224 0.214045
3 0.036079 0.444666 0.072157 0.519268
3 0.982003 0.372166 0.035727 0.117675
0 0.361371 0.552381 0.629431 0.890653
3 0.843428 0.448240 0.096338 0.382245
