4 0.629117 0.811437 0.029398 0.050938
3 0.395954 0.335550 0.016214 0.026173
8 0.469469 0.283094 0.037469 0.059355
5 0.661327 0.871987 0.225102 0.201774
2 0.460219 0.305696 0.050684 0.051422
1 0.456015 0.318468 0.047071 0.027962
