6 0.387439 0.882078 0.088711 0.235843
6 0.667000 0.926940 0.152556 0.146120
6 0.515692 0.907717 0.099350 0.184566
6 0.294058 0.871187 0.145450 0.257627
6 0.226678 0.857729 0.135978 0.284542
6 0.190728 0.855681 0.112867 0.288639
6 0.185369 0.848337 0.083772 0.303325
6 0.157872 0.853675 0.098544 0.292651
6 0.125456 0.847000 0.105911 0.306000
6 0.109236 0.833651 0.096494 0.332699
6 0.093025 0.824843 0.095261 0.322217
6 0.080289 0.796873 0.084822 0.287795
